^C:\USERS\GOLOS\DOCUMENTS\VISUAL STUDIO 2015\PROJECTS\SP_LAB1\SP_LAB1_PART2\STDAFX.CPP
/c /ZI /nologo /W3 /WX- /Od /Oy- /D WIN32 /D _DEBUG /D _CONSOLE /D _UNICODE /D UNICODE /Gm /EHsc /RTC1 /MDd /GS /fp:precise /Zc:wchar_t /Zc:forScope /Zc:inline /Yc"stdafx.h" /Fp"DEBUG\SP_LAB1_PART2.PCH" /Fo"DEBUG\\" /Fd"DEBUG\VC140.PDB" /Gd /TP /analyze- C:\USERS\GOLOS\DOCUMENTS\VISUAL STUDIO 2015\PROJECTS\SP_LAB1\SP_LAB1_PART2\STDAFX.CPP
^C:\USERS\GOLOS\DOCUMENTS\VISUAL STUDIO 2015\PROJECTS\SP_LAB1\SP_LAB1_PART2\SP_LAB1_PART2.CPP
/c /ZI /nologo /W3 /WX- /Od /Oy- /D WIN32 /D _DEBUG /D _CONSOLE /D _UNICODE /D UNICODE /Gm /EHsc /RTC1 /MDd /GS /fp:precise /Zc:wchar_t /Zc:forScope /Zc:inline /Yu"stdafx.h" /Fp"DEBUG\SP_LAB1_PART2.PCH" /Fo"DEBUG\\" /Fd"DEBUG\VC140.PDB" /Gd /TP /analyze- C:\USERS\GOLOS\DOCUMENTS\VISUAL STUDIO 2015\PROJECTS\SP_LAB1\SP_LAB1_PART2\SP_LAB1_PART2.CPP
